Welcome to my blog - Trying the new R vroom Package
…
file <- curl::curl_download("https://s3.amazonaws.com/capitalbikeshare-data/201801-capitalbikeshare-tripdata.zip", destfile = tempfile(fileext = ".zip"))
file <- unzip(file, exdir = tempdir())
read_csv(file)

Rows: 168590 Columns: 9
── Column specification ────────────────────────────────────────────────────────
Delimiter: ","
chr  (4): Start station, End station, Bike number, Member type
dbl  (3): Duration, Start station number, End station number
dttm (2): Start date, End date

ℹ Use `spec()` to retrieve the full column specification for this data.
ℹ Specify the column types or set `show_col_types = FALSE` to quiet this message.

# A tibble: 168,590 × 9
   Duration `Start date`        `End date`          Start stat…¹ Start…² End s…³
      <dbl> <dttm>              <dttm>                     <dbl> <chr>     <dbl>
 1      552 2018-01-01 00:05:06 2018-01-01 00:14:18        31104 Adams …   31400
 2     1282 2018-01-01 00:14:30 2018-01-01 00:35:53        31321 15th S…   31321
 3     1265 2018-01-01 00:14:53 2018-01-01 00:35:58        31321 15th S…   31321
 4      578 2018-01-01 00:15:31 2018-01-01 00:25:09        31406 14th &…   31103
 5      372 2018-01-01 00:18:02 2018-01-01 00:24:15        31618 4th & …   31619
 6      369 2018-01-01 00:18:07 2018-01-01 00:24:17        31618 4th & …   31619
 7      486 2018-01-01 00:19:07 2018-01-01 00:27:14        31042 Market…   31098
 8     1615 2018-01-01 00:21:55 2018-01-01 00:48:50        31042 Market…   31045
 9     1598 2018-01-01 00:22:02 2018-01-01 00:48:41        31042 Market…   31045
10      483 2018-01-01 00:22:10 2018-01-01 00:30:14        31115 Columb…   31509
# … with 168,580 more rows, 3 more variables: `End station` <chr>,
#   `Bike number` <chr>, `Member type` <chr>, and abbreviated variable names
#   ¹​`Start station number`, ²​`Start station`, ³​`End station number`
# ℹ Use `print(n = ...)` to see more rows, and `colnames()` to see all variable names
…
df <- vroom(files, .name_repair = ~janitor::make_clean_names(.))

Rows: 1685900 Columns: 9
── Column specification ────────────────────────────────────────────────────────
Delimiter: ","
chr  (4): start_station, end_station, bike_number, member_type
dbl  (3): duration, start_station_number, end_station_number
dttm (2): start_date, end_date

ℹ Use `spec()` to retrieve the full column specification for this data.
ℹ Specify the column types or set `show_col_types = FALSE` to quiet this message.

df

# A tibble: 1,685,900 × 9
   duration start_date          end_date            start_stat…¹ start…² end_s…³
      <dbl> <dttm>              <dttm>                     <dbl> <chr>     <dbl>
 1      552 2018-01-01 00:05:06 2018-01-01 00:14:18        31104 Adams …   31400
 2     1282 2018-01-01 00:14:30 2018-01-01 00:35:53        31321 15th S…   31321
 3     1265 2018-01-01 00:14:53 2018-01-01 00:35:58        31321 15th S…   31321
 4      578 2018-01-01 00:15:31 2018-01-01 00:25:09        31406 14th &…   31103
 5      372 2018-01-01 00:18:02 2018-01-01 00:24:15        31618 4th & …   31619
 6      369 2018-01-01 00:18:07 2018-01-01 00:24:17        31618 4th & …   31619
 7      486 2018-01-01 00:19:07 2018-01-01 00:27:14        31042 Market…   31098
 8     1615 2018-01-01 00:21:55 2018-01-01 00:48:50        31042 Market…   31045
 9     1598 2018-01-01 00:22:02 2018-01-01 00:48:41        31042 Market…   31045
10      483 2018-01-01 00:22:10 2018-01-01 00:30:14        31115 Columb…   31509
# … with 1,685,890 more rows, 3 more variables: end_station <chr>,
#   bike_number <chr>, member_type <chr>, and abbreviated variable names
#   ¹​start_station_number, ²​start_station, ³​end_station_number
# ℹ Use `print(n = ...)` to see more rows, and `colnames()` to see all variable names
…
