Welcome to my blog - Reading multiples CSV files using readr
…
files <- fs::dir_ls(path = "/tmp", glob = "*flights*csv")
files
#> /tmp/flights_9E.csv /tmp/flights_AA.csv /tmp/flights_AS.csv /tmp/flights_B6.csv 
#> /tmp/flights_DL.csv /tmp/flights_EV.csv /tmp/flights_F9.csv /tmp/flights_FL.csv 
#> /tmp/flights_HA.csv /tmp/flights_MQ.csv /tmp/flights_OO.csv /tmp/flights_UA.csv 
#> /tmp/flights_US.csv /tmp/flights_VX.csv /tmp/flights_WN.csv /tmp/flights_YV.csv

We can look at what the data look like.

read_csv(files[[1]])
#> # A tibble: 18,460 × 19
#>     year month   day dep_time sched_de…¹ dep_d…² arr_t…³ sched…⁴ arr_d…⁵ carrier
#>    <dbl> <dbl> <dbl>    <dbl>      <dbl>   <dbl>   <dbl>   <dbl>   <dbl>   <dbl>
#>  1  2013     1     1      810        810       0    1048    1037      11       9
#>  2  2013     1     1     1451       1500      -9    1634    1636      -2       9
#>  3  2013     1     1     1452       1455      -3    1637    1639      -2       9
#>  4  2013     1     1     1454       1500      -6    1635    1636      -1       9
#>  5  2013     1     1     1507       1515      -8    1651    1656      -5       9
#>  6  2013     1     1     1530       1530       0    1650    1655      -5       9
#>  7  2013     1     1     1546       1540       6    1753    1748       5       9
#>  8  2013     1     1     1550       1550       0    1844    1831      13       9
#>  9  2013     1     1     1552       1600      -8    1749    1757      -8       9
#> 10  2013     1     1     1554       1600      -6    1701    1734     -33       9
#> # … with 18,450 more rows, 9 more variables: flight <dbl>, tailnum <chr>,
#> #   origin <chr>, dest <chr>, air_time <dbl>, distance <dbl>, hour <dbl>,
#> #   minute <dbl>, time_hour <dttm>, and abbreviated variable names
#> #   ¹​sched_dep_time, ²​dep_delay, ³​arr_time, ⁴​sched_arr_time, ⁵​arr_delay
#> # ℹ Use `print(n = ...)` to see more rows, and `colnames()` to see all variable names
…
